%YAML 1.1
%TAG !u! tag:unity3d.com,2011:
--- !u!78 &1
TagManager:
  serializedVersion: 2
  tags:
  - Plano
  - obs
  - portal
  - FxTemporaire
  - salto
  layers:
  - Default
  - TransparentFX
  - Ignore Raycast
  - dibujo
  - Water
  - UI
  - 
  - 
  - raycast
  - 
  - 
  - 
  - 
  - 
  - 
  - 
  - 
  - 
  - 
  - 
  - 
  - 
  - 
  - 
  - 
  - 
  - 
  - 
  - 
  - 
  - TEXTO
  - 
  m_SortingLayers:
  - name: Default
    uniqueID: 0
    locked: 0
